CODIS Marker Allele Frequencies
…
multi_results <- results %>% 
  mutate(
    sum_relatedness = map_dbl(sim_results, function(x) {
      sum(x[["relatedness"]], na.rm = TRUE)
    }),
    sum_alleles = map_dbl(sim_results, function(x) {
      sum(x[["num_shared_alleles"]], na.rm = TRUE)
    })
  ) %>% 
  select(-sim_results)

multi_results

# A tibble: 30 × 4
   population relationship_type sum_relatedness sum_alleles
   <fct>      <fct>                       <dbl>       <dbl>
 1 all        parent_child                0.339          32
 2 AfAm       parent_child                0.255          31
 3 Cauc       parent_child                0.142          34
 4 Hispanic   parent_child                0.166          30
 5 Asian      parent_child                0.313          33
 6 all        full_siblings               0.339          35
 7 AfAm       full_siblings               0.325          39
 8 Cauc       full_siblings               0.401          39
 9 Hispanic   full_siblings               0.306          25
10 Asian      full_siblings               0.223          27
# ℹ 20 more rows
…
multi_results <- results %>% 
  mutate(
    sum_relatedness = map_dbl(sim_results, function(x) {
      sum(x[["relatedness"]], na.rm = TRUE)
    }),
    sum_alleles = map_dbl(sim_results, function(x) {
      sum(x[["num_shared_alleles"]], na.rm = TRUE)
    })
  ) %>% 
  select(-sim_results)

multi_results

# A tibble: 300 × 5
   population relationship_type simulation sum_relatedness sum_alleles
   <fct>      <fct>                  <int>           <dbl>       <dbl>
 1 all        parent_child               1           0.581          35
 2 AfAm       parent_child               1           0.237          31
 3 Cauc       parent_child               1           0.239          31
 4 Hispanic   parent_child               1           0.263          32
 5 Asian      parent_child               1           0.224          29
 6 all        full_siblings              1           0.409          26
 7 AfAm       full_siblings              1           0.479          35
 8 Cauc       full_siblings              1           0.230          28
 9 Hispanic   full_siblings              1           0.280          26
10 Asian      full_siblings              1           0.305          32
# ℹ 290 more rows
…
