Database composition
…
Finally, we create a summary table showing the difference in
representation for each state and demographic group.

# Creating the summary table
state_group_summary <- merged_data %>%
  group_by(State, `Demographic Group`) %>%
  summarize(Difference = mean(Difference)) %>%
  ungroup()

`summarise()` has grouped output by 'State'. You can override using the
`.groups` argument.

state_group_summary

# A tibble: 35 × 3
   State      `Demographic Group` Difference
   <chr>      <chr>                    <dbl>
 1 California Asian                  -0.134 
 2 California Black                   0.116 
 3 California Hispanic               -0.045 
 4 California Native American        NA     
 5 California White                  -0.0740
 6 Florida    Asian                  -0.0267
 7 Florida    Black                   0.183 
 8 Florida    Hispanic               -0.232 
 9 Florida    Native American        -0.0044
10 Florida    White                   0.0730
# ℹ 25 more rows
…
