Estimating Differences in the Distribution of First-degree Relatives
…
2024-09-22

2851385

Tina Lasisi

2024-09-21

# Print summary to check age ranges and normalization
print(df_proportions %>%
  group_by(YEAR, RACE, AGE_RANGE) %>%
  summarise(total_proportion = sum(proportion), .groups = "drop") %>%
  arrange(YEAR, RACE, AGE_RANGE))

# A tibble: 32 × 4
    YEAR RACE                   AGE_RANGE total_proportion
   <int> <fct>                  <chr>                <dbl>
 1  1960 White                  40-49                    1
 2  1960 White                  50-59                    1
 3  1960 White                  60-69                    1
 4  1960 White                  70+                      1
 5  1960 Black/African American 40-49                    1
 6  1960 Black/African American 50-59                    1
 7  1960 Black/African American 60-69                    1
 8  1960 Black/African American 70+                      1
 9  1970 White                  40-49                    1
10  1970 White                  50-59                    1
# ℹ 22 more rows
…
