Short Range Familial Search
…
Tina Lasisi

2023-05-22

summary_df <- df %>%
  group_by(marker, population) %>%
  summarise(num_alleles = n_distinct(allele))

`summarise()` has grouped output by 'marker'. You can override using the
`.groups` argument.

summary_df

# A tibble: 145 × 3
# Groups:   marker [29]
   marker   population num_alleles
   <chr>    <chr>            <int>
 1 CSF1PO   AfAm                 8
 2 CSF1PO   Asian                8
 3 CSF1PO   Cauc                 7
 4 CSF1PO   Hispanic             9
 5 CSF1PO   all                  9
 6 D10S1248 AfAm                11
 7 D10S1248 Asian                7
 8 D10S1248 Cauc                 9
 9 D10S1248 Hispanic             9
10 D10S1248 all                 12
# ℹ 135 more rows

summary_df <- df %>%
  group_by(marker, population) %>%
  summarise(num_alleles = n_distinct(allele))

`summarise()` has grouped output by 'marker'. You can override using the
`.groups` argument.

summary_pivot <- summary_df %>%
  pivot_wider(names_from = population, values_from = num_alleles)

summary_pivot

# A tibble: 29 × 6
# Groups:   marker [29]
   marker    AfAm Asian  Cauc Hispanic   all
   <chr>    <int> <int> <int>    <int> <int>
 1 CSF1PO       8     8     7        9     9
 2 D10S1248    11     7     9        9    12
 3 D12S391     19    15    16       19    24
 4 D13S317      7     6     8        8     8
 5 D16S539      8     6     7        8     9
 6 D18S51      19    13    15       15    22
 7 D19S433     14    11    15       13    16
 8 D1S1656     15    12    15       15    15
 9 D21S11      20    12    16       16    27
10 D22S1045    11     8     8        9    11
# ℹ 19 more rows
…
multi_results <- results %>% 
  mutate(
    sum_relatedness = map_dbl(sim_results, function(x) {
      sum(x[["relatedness"]], na.rm = TRUE)
    }),
    sum_alleles = map_dbl(sim_results, function(x) {
      sum(x[["num_shared_alleles"]], na.rm = TRUE)
    })
  ) %>% 
  select(-sim_results)

multi_results

# A tibble: 30 × 4
   population relationship_type sum_relatedness sum_alleles
   <fct>      <fct>                       <dbl>       <dbl>
 1 AfAm       parent_child                0.589          31
 2 all        parent_child                0.843          32
 3 Asian      parent_child                0.501          35
 4 Cauc       parent_child                0.442          33
 5 Hispanic   parent_child                0.489          31
 6 AfAm       full_siblings               0.380          29
 7 all        full_siblings               0.704          40
 8 Asian      full_siblings               0.556          36
 9 Cauc       full_siblings               0.237          26
10 Hispanic   full_siblings               0.375          28
# ℹ 20 more rows
…
multi_results <- results %>% 
  mutate(
    sum_relatedness = map_dbl(sim_results, function(x) {
      sum(x[["relatedness"]], na.rm = TRUE)
    }),
    sum_alleles = map_dbl(sim_results, function(x) {
      sum(x[["num_shared_alleles"]], na.rm = TRUE)
    })
  ) %>% 
  select(-sim_results)

multi_results

# A tibble: 300 × 5
   population relationship_type simulation sum_relatedness sum_alleles
   <fct>      <fct>                  <int>           <dbl>       <dbl>
 1 AfAm       parent_child               1           0.532          31
 2 all        parent_child               1           0.438          31
 3 Asian      parent_child               1           0.388          32
 4 Cauc       parent_child               1           0.368          30
 5 Hispanic   parent_child               1           0.411          33
 6 AfAm       full_siblings              1           0.373          25
 7 all        full_siblings              1           0.717          35
 8 Asian      full_siblings              1           0.681          29
 9 Cauc       full_siblings              1           0.426          24
10 Hispanic   full_siblings              1           0.516          32
# ℹ 290 more rows
…
