Simulation of STR Pairs and Calculation of Likelihood Ratios
…
Date

f143ee1

tinalasisi

2024-09-16

b98be97

linmatch

2024-08-30

# A tibble: 25 × 7
   population loci_set  fixed_cutoff cutoff_1 cutoff_0_1 cutoff_0_01 n_unrelated
   <fct>      <fct>            <dbl>    <dbl>      <dbl>       <dbl>       <int>
 1 all        core_13              1        1          1           1          10
 2 all        identifi…            1        1          1           1          10
 3 all        expanded…            1        1          1           1          10
 4 all        suppleme…            1        1          1           1          10
 5 all        autosoma…            1        1          1           1          10
 6 AfAm       core_13              1        1          1           1          10
 7 AfAm       identifi…            1        1          1           1          10
 8 AfAm       expanded…            1        1          1           1          10
 9 AfAm       suppleme…            1        1          1           1          10
10 AfAm       autosoma…            1        1          1           1          10
# ℹ 15 more rows

# A tibble: 625 × 8
   population relationship_type loci_set       proportion_exceeding_fixed
   <fct>      <fct>             <fct>                               <dbl>
 1 all        parent_child      core_13                                 1
 2 all        parent_child      core_13                                 1
 3 all        parent_child      core_13                                 1
 4 all        parent_child      core_13                                 1
 5 all        parent_child      core_13                                 1
 6 all        parent_child      identifiler_15                          1
 7 all        parent_child      identifiler_15                          1
 8 all        parent_child      identifiler_15                          1
 9 all        parent_child      identifiler_15                          1
10 all        parent_child      identifiler_15                          1
# ℹ 615 more rows
# ℹ 4 more variables: proportion_exceeding_1 <dbl>,
#   proportion_exceeding_0_1 <dbl>, proportion_exceeding_0_01 <dbl>,
#   n_related <int>
…
Date

b98be97

linmatch

2024-08-30

Cut-offs for each FPR

`summarise()` has grouped output by 'population'. You can override using the
`.groups` argument.

# A tibble: 24 × 7
   population known_relationship_type mean_log_R_sum median_log_R_sum
   <chr>      <chr>                            <dbl>            <dbl>
 1 AfAm       cousins                         -0.533            2.42 
 2 AfAm       full_siblings                   10.5             11.5  
 3 AfAm       half_siblings                    3.85             6.80 
 4 AfAm       parent_child                    19.6             19.0  
 5 AfAm       second_cousins                  -1.23             1.78 
 6 AfAm       unrelated                       -2.00             0.914
 7 Asian      cousins                         -0.538            2.42 
 8 Asian      full_siblings                   10.5             11.6  
 9 Asian      half_siblings                    3.82             6.78 
10 Asian      parent_child                    19.5             18.9  
# ℹ 14 more rows
# ℹ 3 more variables: min_log_R_sum <dbl>, max_log_R_sum <dbl>, count <int>
…
