Short Range Familial Search
…
  # Create a dataframe of all combinations of populations and relationship types
  combinations <- expand_grid(population = filtered_populations, relationship_type = relationship_types)

  # Add the number of simulations for unrelated or related relationships
  combinations$n_sims <- ifelse(combinations$relationship_type == "unrelated", n_sims_unrelated, n_sims_related)
  
  return(combinations)
}

# Example usage
result_combinations <- simulation_combinations(df, n_sims_unrelated = 10, n_sims_related = 5)

result_combinations

# A tibble: 24 × 3
   population relationship_type n_sims
   <chr>      <chr>              <dbl>
 1 AfAm       parent_child           5
 2 AfAm       full_siblings          5
 3 AfAm       half_siblings          5
 4 AfAm       cousins                5
 5 AfAm       second_cousins         5
 6 AfAm       unrelated             10
 7 Asian      parent_child           5
 8 Asian      full_siblings          5
 9 Asian      half_siblings          5
10 Asian      cousins                5
# ℹ 14 more rows
…
